rOpenSci | Extracting and Enriching Ocean Biogeographic Information System (OBIS) Data with R
…
To get a list of species for a given region, use checklist, and specify your geometry (here an arbitrary 5 x 5 degree square in the NE Atlantic):

my_taxa <- tbl_df(checklist(
	geometry = "POLYGON ((-20 50, -20 55, -15 55, -15 50, -20 50))"))

Then filter this to taxa with species rank:

my_species <- filter(my_taxa, rank_name == "Species")

The result is a tibble of the 930 species found in this grid square, plus their full taxonomy and some additional summary information, including the number of records in OBIS (records):

my_species

## # A tibble: 930 × 18
##        id valid_id parent_id rank_name                   tname
##     <int>    <int>     <int>     <chr>                   <chr>
## 1  395754   395754    695236   Species     Acanthephyra eximia
## 2  395764   395764    695236   Species   Acanthephyra pelagica
## 3  395973   395973    395971   Species Acanthoica quattrospina
## 4  396173   396173    767483   Species Acanthoscina acanthodes
## 5  398225   398225    767500   Species      Adagnesia charcoti
## 6  398227   398227    767500   Species        Adagnesia rimosa
## 7  398647   398647    398644   Species        Aetideus armatus
## 8  400887   400887    400884   Species          Amperima rosea
## 9  401559   401559    738082   Species   Amphissa acutecostata
## 10 402079   402079    768595   Species      Amuletta abyssorum
## # ... with 920 more rows, and 13 more variables: tauthor <chr>,
## #   worms_id <int>, records <int>, datasets <int>, phylum <chr>,
## #   order <chr>, family <chr>, genus <chr>, species <chr>, class <chr>,
## #   redlist <lgl>, status <chr>, hab <lgl>
…
