rOpenSci | traits tutorial
…
Searching for Potus flavus, page id 328574

res <- traitbank(pageid = 328574)
res$graph %>%
  select(dwc.measurementtype,
         dwc.measurementvalue) %>%
  filter(!is.na(dwc.measurementvalue))

Coral

Get the species list and their ids

coral_species()

#> # A tibble: 1,548 x 2
#>                          name    id
#>                         <chr> <chr>
#>  1        Acanthastrea brevis     3
#>  2      Acanthastrea echinata     4
#>  3     Acanthastrea hemprichi     6
#>  4 Acanthastrea ishigakiensis     8
#>  5     Acanthastrea regularis    12
#>  6  Acanthastrea rotundoflora    13
#>  7   Acanthastrea subechinata    14
#>  8     Acropora abrolhosensis    16
#>  9      Acropora abrotanoides    17
#> 10           Acropora aculeus    18
#> # ... with 1,538 more rows

Get data by taxon

coral_taxa(80)

#> # A tibble: 3,540 x 25
#>    observation_id access user_id specie_id         specie_name location_id
#>             <int>  <int>   <int>     <int>               <chr>       <int>
#>  1         157133      1      10        80 Acropora hyacinthus           1
#>  2         156961      1      14        80 Acropora hyacinthus         409
#>  3           5781      1       1        80 Acropora hyacinthus           1
#>  4         156610      1       2        80 Acropora hyacinthus         500
#>  5         158118      1      10        80 Acropora hyacinthus         409
#>  6         119211      1      49        80 Acropora hyacinthus           1
#>  7         158211      1      10        80 Acropora hyacinthus         413
#>  8          90294      1      15        80 Acropora hyacinthus         341
#>  9          90294      1      15        80 Acropora hyacinthus         341
#> 10          90294      1      15        80 Acropora hyacinthus         341
#> # ... with 3,530 more rows, and 19 more variables: location_name <chr>,
#> #   latitude <dbl>, longitude <dbl>, resource_id <int>,
#> #   resource_secondary_id <int>, measurement_id <int>, trait_id <int>,
#> #   trait_name <chr>, standard_id <int>, standard_unit <chr>,
#> #   methodology_id <int>, methodology_name <chr>, value <chr>,
#> #   value_type <chr>, precision <dbl>, precision_type <chr>,
#> #   precision_upper <dbl>, replicates <int>, notes <chr>

Get data by trait

coral_traits(105)

#> # A tibble: 0 x 25
#> # ... with 25 variables: observation_id <lgl>, access <lgl>,
#> #   user_id <lgl>, specie_id <lgl>, specie_name <lgl>, location_id <lgl>,
#> #   location_name <lgl>, latitude <lgl>, longitude <lgl>,
#> #   resource_id <lgl>, resource_secondary_id <lgl>, measurement_id <lgl>,
#> #   trait_id <lgl>, trait_name <lgl>, standard_id <lgl>,
#> #   standard_unit <lgl>, methodology_id <lgl>, methodology_name <lgl>,
#> #   value <lgl>, value_type <lgl>, precision <lgl>, precision_type <lgl>,
#> #   precision_upper <lgl>, replicates <lgl>, notes <lgl>

Birdlife International

Habitat data

birdlife_habitat(22721692)

#>         id Habitat (level 1)                  Habitat (level 2) Importance
#> 1 22721692            Forest           Subtropical/Tropical Dry   suitable
#> 2 22721692            Forest Subtropical/Tropical Moist Montane      major
#> 3 22721692            Forest                          Temperate   suitable
#> 4 22721692         Shrubland Subtropical/Tropical High Altitude   suitable
#>     Occurrence
#> 1     breeding
#> 2 non-breeding
#> 3     breeding
#> 4     breeding

Threats data

birdlife_threats(22721692)

#>         id                                                  threat1
#> 1 22721692                                Agriculture & aquaculture
#> 2 22721692                                Agriculture & aquaculture
#> 3 22721692                                  Biological resource use
#>                               threat2
#> 1 Annual & perennial non-timber crops
#> 2 Annual & perennial non-timber crops
#> 3           Logging & wood harvesting
#>                                      stresses
#> 1 Ecosystem degradation, Ecosystem conversion
#> 2 Ecosystem degradation, Ecosystem conversion
#> 3                       Ecosystem degradation
#>                                                     timing
#> 1                                Agriculture & aquaculture
#> 2                                Agriculture & aquaculture
#> 3                                  Biological resource use
#>                                 scope severity  impact
#> 1 Annual & perennial non-timber crops  Ongoing Ongoing
#> 2 Annual & perennial non-timber crops  Ongoing Ongoing
#> 3           Logging & wood harvesting  Ongoing Ongoing
#>  [ reached getOption("max.print") -- omitted 3 rows ]
…
