rOpenSci | Parse NOAA Integrated Surface Data Files
…
By default you get a tibble back, but you can ask for a list in return instead.

Parsing by line allows the user to decide how to apply parsing across lines,
whether it be lapply style, or for loop, etc.

Parse entire files

You can also parse entire ISD files.

isd_parse(path)
#> # A tibble: 2,601 × 42
#>    total_chars usaf_station wban_station       date  time date_flag
#>          <dbl>        <chr>        <chr>     <date> <chr>     <chr>
#> 1           54       024130        99999 2016-01-01  0000         4
#> 2           54       024130        99999 2016-01-01  0100         4
#> 3           54       024130        99999 2016-01-01  0200         4
#> 4           54       024130        99999 2016-01-01  0300         4
#> 5           54       024130        99999 2016-01-01  0400         4
#> 6           39       024130        99999 2016-01-01  0500         4
#> 7           54       024130        99999 2016-01-01  0600         4
#> 8           39       024130        99999 2016-01-01  0700         4
#> 9           54       024130        99999 2016-01-01  0800         4
#> 10          54       024130        99999 2016-01-01  0900         4
#> # ... with 2,591 more rows, and 36 more variables: latitude <dbl>,
#> #   longitude <dbl>, type_code <chr>, elevation <dbl>, call_letter <chr>,
#> #   quality <chr>, wind_direction <dbl>, wind_direction_quality <chr>,
#> #   wind_code <chr>, wind_speed <dbl>, wind_speed_quality <chr>,
#> #   ceiling_height <chr>, ceiling_height_quality <chr>,
#> #   ceiling_height_determination <chr>, ceiling_height_cavok <chr>,
#> #   visibility_distance <chr>, visibility_distance_quality <chr>,
#> #   visibility_code <chr>, visibility_code_quality <chr>,
#> #   temperature <dbl>, temperature_quality <chr>,
#> #   temperature_dewpoint <dbl>, temperature_dewpoint_quality <chr>,
#> #   air_pressure <dbl>, air_pressure_quality <chr>,
#> #   AW1_present_weather_observation_identifier <chr>,
#> #   AW1_automated_atmospheric_condition_code <chr>,
#> #   AW1_quality_automated_atmospheric_condition_code <chr>,
#> #   N03_original_observation <chr>, N03_original_value_text <chr>,
#> #   N03_units_code <chr>, N03_parameter_code <chr>, REM_remarks <chr>,
#> #   REM_identifier <chr>, REM_length_quantity <chr>, REM_comment <chr>

Optionally, you can print progress:

isd_parse(path, progress = TRUE)
#> # A tibble: 2,601 × 42
#>    total_chars usaf_station wban_station       date  time date_flag
#>          <dbl>        <chr>        <chr>     <date> <chr>     <chr>
#> 1           54       024130        99999 2016-01-01  0000         4
#> 2           54       024130        99999 2016-01-01  0100         4
#> 3           54       024130        99999 2016-01-01  0200         4
#> 4           54       024130        99999 2016-01-01  0300         4
#> 5           54       024130        99999 2016-01-01  0400         4
#> 6           39       024130        99999 2016-01-01  0500         4
#> 7           54       024130        99999 2016-01-01  0600         4
#> 8           39       024130        99999 2016-01-01  0700         4
#> 9           54       024130        99999 2016-01-01  0800         4
#> 10          54       024130        99999 2016-01-01  0900         4
#> # ... with 2,591 more rows, and 36 more variables: latitude <dbl>,
#> #   longitude <dbl>, type_code <chr>, elevation <dbl>, call_letter <chr>,
#> #   quality <chr>, wind_direction <dbl>, wind_direction_quality <chr>,
#> #   wind_code <chr>, wind_speed <dbl>, wind_speed_quality <chr>,
#> #   ceiling_height <chr>, ceiling_height_quality <chr>,
#> #   ceiling_height_determination <chr>, ceiling_height_cavok <chr>,
#> #   visibility_distance <chr>, visibility_distance_quality <chr>,
#> #   visibility_code <chr>, visibility_code_quality <chr>,
#> #   temperature <dbl>, temperature_quality <chr>,
…
